[gd_scene load_steps=2 format=2]

[ext_resource path="res://src/GUI/MenuButton.tscn" type="PackedScene" id=1]

[node name="NewGameButton" instance=ExtResource( 1 )]

[node name="Label" parent="." index="0"]
align = 1
