; Engine configuration file.
; It's best edited using the editor UI and not directly,
; since the parameters that go here are not all obvious.
;
; Format:
;   [section] ; section goes between []
;   param=value ; assign values to parameters

config_version=4

[application]

config/name="FroggorF"
run/main_scene="res://src/GUI/TitleScreen.tscn"
config/icon="res://icon.png"

[autoload]

PlayerData="*res://src/Autoload/PlayerData.tscn"

[display]

window/size/width=1600
window/size/height=900
window/stretch/mode="2d"
window/stretch/aspect="keep"

[global]

auto=false

[input]

pause={
"deadzone": 0.5,
"events": [ Object(InputEventKey,"resource_local_to_scene":false,"resource_name":"","device":0,"alt":false,"shift":false,"control":false,"meta":false,"command":false,"pressed":false,"scancode":16777217,"unicode":0,"echo":false,"script":null)
 ]
}

[physics]

common/enable_pause_aware_picking=true

[rendering]

environment/default_environment="res://default_env.tres"
