[gd_scene load_steps=4 format=2]

[ext_resource path="res://assets/Raindrop.png" type="Texture" id=1]
[ext_resource path="res://src/TimeDependent/Raindrop/Raindrop.gd" type="Script" id=2]

[sub_resource type="Animation" id=1]
resource_name = "rain"
length = 2.0
loop = true
step = 0.01
tracks/0/type = "value"
tracks/0/path = NodePath("MainDrop:position")
tracks/0/interp = 1
tracks/0/loop_wrap = true
tracks/0/imported = false
tracks/0/enabled = true
tracks/0/keys = {
"times": PoolRealArray( 0, 1.84, 1.85, 2 ),
"transitions": PoolRealArray( 1, 1, 1, 1 ),
"update": 0,
"values": [ Vector2( 0, -5000 ), Vector2( 0, -20.2933 ), Vector2( 0, -20.293 ), Vector2( 0, -20.293 ) ]
}
tracks/1/type = "value"
tracks/1/path = NodePath("MainDrop:modulate")
tracks/1/interp = 1
tracks/1/loop_wrap = true
tracks/1/imported = false
tracks/1/enabled = true
tracks/1/keys = {
"times": PoolRealArray( 0, 0.01, 1.84, 1.85, 2 ),
"transitions": PoolRealArray( 1, 1, 1, 1, 1 ),
"update": 0,
"values": [ Color( 1, 1, 1, 0 ), Color( 1, 1, 1, 1 ), Color( 1, 1, 1, 1 ), Color( 1, 1, 1, 0 ), Color( 1, 1, 1, 0 ) ]
}
tracks/2/type = "value"
tracks/2/path = NodePath("SideDrop1:position")
tracks/2/interp = 1
tracks/2/loop_wrap = true
tracks/2/imported = false
tracks/2/enabled = true
tracks/2/keys = {
"times": PoolRealArray( 0, 1.84, 2 ),
"transitions": PoolRealArray( 1, 1, 1 ),
"update": 0,
"values": [ Vector2( -3.3409, -4.85106 ), Vector2( 1.95642, 1.77058 ), Vector2( -14.995, -12.0024 ) ]
}
tracks/3/type = "value"
tracks/3/path = NodePath("SideDrop1:rotation_degrees")
tracks/3/interp = 1
tracks/3/loop_wrap = true
tracks/3/imported = false
tracks/3/enabled = true
tracks/3/keys = {
"times": PoolRealArray( 0, 1.84, 2 ),
"transitions": PoolRealArray( 1, 1, 1 ),
"update": 0,
"values": [ 146.742, 146.742, 40.1919 ]
}
tracks/4/type = "value"
tracks/4/path = NodePath("SideDrop1:modulate")
tracks/4/interp = 1
tracks/4/loop_wrap = true
tracks/4/imported = false
tracks/4/enabled = true
tracks/4/keys = {
"times": PoolRealArray( 0, 1.84, 1.85, 1.97, 2 ),
"transitions": PoolRealArray( 1, 1, 1, 1, 1 ),
"update": 0,
"values": [ Color( 1, 1, 1, 0 ), Color( 1, 1, 1, 0 ), Color( 1, 1, 1, 1 ), Color( 1, 1, 1, 1 ), Color( 1, 1, 1, 0 ) ]
}
tracks/5/type = "value"
tracks/5/path = NodePath("SideDrop2:position")
tracks/5/interp = 1
tracks/5/loop_wrap = true
tracks/5/imported = false
tracks/5/enabled = true
tracks/5/keys = {
"times": PoolRealArray( 1.84, 2 ),
"transitions": PoolRealArray( 1, 1 ),
"update": 0,
"values": [ Vector2( -2.28142, 2.03546 ), Vector2( 11.3048, -10.6598 ) ]
}
tracks/6/type = "value"
tracks/6/path = NodePath("SideDrop2:rotation_degrees")
tracks/6/interp = 1
tracks/6/loop_wrap = true
tracks/6/imported = false
tracks/6/enabled = true
tracks/6/keys = {
"times": PoolRealArray( 1.84, 2 ),
"transitions": PoolRealArray( 1, 1 ),
"update": 0,
"values": [ 224.376, 276.165 ]
}
tracks/7/type = "value"
tracks/7/path = NodePath("SideDrop2:modulate")
tracks/7/interp = 1
tracks/7/loop_wrap = true
tracks/7/imported = false
tracks/7/enabled = true
tracks/7/keys = {
"times": PoolRealArray( 0, 1.84, 1.85, 1.97, 2 ),
"transitions": PoolRealArray( 1, 1, 1, 1, 1 ),
"update": 0,
"values": [ Color( 1, 1, 1, 0 ), Color( 1, 1, 1, 0 ), Color( 1, 1, 1, 1 ), Color( 1, 1, 1, 1 ), Color( 1, 1, 1, 0 ) ]
}
tracks/8/type = "value"
tracks/8/path = NodePath("SideDrop3:position")
tracks/8/interp = 1
tracks/8/loop_wrap = true
tracks/8/imported = false
tracks/8/enabled = true
tracks/8/keys = {
"times": PoolRealArray( 0, 1.84, 1.98 ),
"transitions": PoolRealArray( 1, 1, 1 ),
"update": 0,
"values": [ Vector2( -2.33218, 1.60093 ), Vector2( -1.21854, 3.82818 ), Vector2( 7.02224, -14.4352 ) ]
}
tracks/9/type = "value"
tracks/9/path = NodePath("SideDrop3:rotation_degrees")
tracks/9/interp = 1
tracks/9/loop_wrap = true
tracks/9/imported = false
tracks/9/enabled = true
tracks/9/keys = {
"times": PoolRealArray( 0, 1.84, 1.98 ),
"transitions": PoolRealArray( 1, 1, 1 ),
"update": 0,
"values": [ 247.954, 193.49, 215.086 ]
}
tracks/10/type = "value"
tracks/10/path = NodePath("SideDrop3:modulate")
tracks/10/interp = 1
tracks/10/loop_wrap = true
tracks/10/imported = false
tracks/10/enabled = true
tracks/10/keys = {
"times": PoolRealArray( 0, 1.84, 1.85, 1.95, 1.98, 2 ),
"transitions": PoolRealArray( 1, 1, 1, 1, 1, 1 ),
"update": 0,
"values": [ Color( 1, 1, 1, 0 ), Color( 1, 1, 1, 0 ), Color( 1, 1, 1, 1 ), Color( 1, 1, 1, 1 ), Color( 1, 1, 1, 0 ), Color( 1, 1, 1, 0 ) ]
}
tracks/11/type = "value"
tracks/11/path = NodePath("SideDrop4:position")
tracks/11/interp = 1
tracks/11/loop_wrap = true
tracks/11/imported = false
tracks/11/enabled = true
tracks/11/keys = {
"times": PoolRealArray( 0, 1.84, 1.95 ),
"transitions": PoolRealArray( 1, 1, 1 ),
"update": 0,
"values": [ Vector2( 1.00869, 6.05542 ), Vector2( 1.00869, 6.05542 ), Vector2( -1.21855, -6.86261 ) ]
}
tracks/12/type = "value"
tracks/12/path = NodePath("SideDrop4:rotation_degrees")
tracks/12/interp = 1
tracks/12/loop_wrap = true
tracks/12/imported = false
tracks/12/enabled = true
tracks/12/keys = {
"times": PoolRealArray( 0, 1.84, 1.95 ),
"transitions": PoolRealArray( 1, 1, 1 ),
"update": 0,
"values": [ 174.551, 174.551, 168.334 ]
}
tracks/13/type = "value"
tracks/13/path = NodePath("SideDrop4:modulate")
tracks/13/interp = 1
tracks/13/loop_wrap = true
tracks/13/imported = false
tracks/13/enabled = true
tracks/13/keys = {
"times": PoolRealArray( 1.84, 1.85, 1.93, 1.95, 2 ),
"transitions": PoolRealArray( 1, 1, 1, 1, 1 ),
"update": 0,
"values": [ Color( 1, 1, 1, 0 ), Color( 1, 1, 1, 1 ), Color( 1, 1, 1, 0.913043 ), Color( 1, 1, 1, 0 ), Color( 1, 1, 1, 0 ) ]
}

[node name="Raindrop" type="Node2D"]
scale = Vector2( 0.5, 0.5 )
script = ExtResource( 2 )
__meta__ = {
"_edit_lock_": true
}

[node name="MainDrop" type="Sprite" parent="."]
modulate = Color( 1, 1, 1, 0 )
position = Vector2( 0, -5000 )
scale = Vector2( 0.5, 0.5 )
texture = ExtResource( 1 )

[node name="SideDrop1" type="Sprite" parent="."]
modulate = Color( 1, 1, 1, 0 )
position = Vector2( -3.3409, -4.85106 )
rotation = 2.56113
scale = Vector2( 0.141243, 0.141243 )
texture = ExtResource( 1 )
offset = Vector2( 2.82736, 42.7237 )

[node name="SideDrop2" type="Sprite" parent="."]
modulate = Color( 1, 1, 1, 0 )
position = Vector2( 11.3048, -10.6598 )
rotation = 4.81999
scale = Vector2( 0.141243, 0.141243 )
texture = ExtResource( 1 )
offset = Vector2( 2.82736, 42.7237 )

[node name="SideDrop3" type="Sprite" parent="."]
modulate = Color( 1, 1, 1, 0 )
position = Vector2( -2.33218, 1.60093 )
rotation = 4.32762
scale = Vector2( 0.141243, 0.141243 )
texture = ExtResource( 1 )
offset = Vector2( 2.82736, 42.7237 )

[node name="SideDrop4" type="Sprite" parent="."]
modulate = Color( 1, 1, 1, 0 )
position = Vector2( 1.00869, 6.05542 )
rotation = 3.04649
scale = Vector2( 0.141243, 0.141243 )
texture = ExtResource( 1 )
offset = Vector2( 2.82736, 42.7237 )

[node name="AnimationPlayer" type="AnimationPlayer" parent="."]
anims/rain = SubResource( 1 )
